…
df_stang_long
```

    ## # A tibble: 26 x 5
    ##    thick alloy   angle     E    mu
    ##    <dbl> <chr>   <int> <dbl> <dbl>
    ##  1 0.022 al_24st     0 10600 0.321
    ##  2 0.022 al_24st    45 10700 0.329
    ##  3 0.022 al_24st    90 10500 0.31 
    ##  4 0.022 al_24st     0 10600 0.323
    ##  5 0.022 al_24st    45 10500 0.331
    ##  6 0.022 al_24st    90 10700 0.323
    ##  7 0.032 al_24st     0 10400 0.329
    ##  8 0.032 al_24st    45 10400 0.318
    ##  9 0.032 al_24st    90 10300 0.322
    ## 10 0.032 al_24st     0 10300 0.319
    ## # ... with 16 more rows
…
**q2** Perform a basic EDA on the aluminum data *without visualization*.
Use your analysis to answer the questions under *observations* below. In
addition, add your own question that you’d like to answer about the
data.

``` r
##
#?df_stang_long
#glimpse(df_stang_long)
#summary(df_stang_long)
df_stang_long
```

    ## # A tibble: 26 x 5
    ##    thick alloy   angle     E    mu
    ##    <dbl> <chr>   <int> <dbl> <dbl>
    ##  1 0.022 al_24st     0 10600 0.321
    ##  2 0.022 al_24st    45 10700 0.329
    ##  3 0.022 al_24st    90 10500 0.31 
    ##  4 0.022 al_24st     0 10600 0.323
    ##  5 0.022 al_24st    45 10500 0.331
    ##  6 0.022 al_24st    90 10700 0.323
    ##  7 0.032 al_24st     0 10400 0.329
    ##  8 0.032 al_24st    45 10400 0.318
    ##  9 0.032 al_24st    90 10300 0.322
    ## 10 0.032 al_24st     0 10300 0.319
    ## # ... with 16 more rows
…
