…
    ## Warning: Expected 3 pieces. Additional pieces discarded in 722 rows [58, 68, 69,
    ## 71, 72, 74, 75, 77, 78, 79, 80, 81, 82, 83, 85, 86, 87, 89, 90, 92, ...].

    ## Warning: Expected 3 pieces. Missing pieces filled with `NA` in 1 rows [3221].

``` r
df_pop_select
```

    ## # A tibble: 3,221 x 4
    ##    id             county   state   EstimatePopulation
    ##    <chr>          <chr>    <chr>                <dbl>
    ##  1 0500000US01001 Autauga  Alabama              55200
    ##  2 0500000US01003 Baldwin  Alabama             208107
    ##  3 0500000US01005 Barbour  Alabama              25782
    ##  4 0500000US01007 Bibb     Alabama              22527
    ##  5 0500000US01009 Blount   Alabama              57645
    ##  6 0500000US01011 Bullock  Alabama              10352
    ##  7 0500000US01013 Butler   Alabama              20025
    ##  8 0500000US01015 Calhoun  Alabama             115098
    ##  9 0500000US01017 Chambers Alabama              33826
    ## 10 0500000US01019 Cherokee Alabama              25853
    ## # ... with 3,211 more rows
…
**q3** Process the `id` column of `df_pop` to create a `fips` column.

``` r
## TASK: Create a `fips` column by extracting the county code
df_q3 <- df_pop_select %>% 
  mutate(fips = substr(id,10,15))

df_q3
```

    ## # A tibble: 3,221 x 5
    ##    id             county   state   EstimatePopulation fips 
    ##    <chr>          <chr>    <chr>                <dbl> <chr>
    ##  1 0500000US01001 Autauga  Alabama              55200 01001
    ##  2 0500000US01003 Baldwin  Alabama             208107 01003
    ##  3 0500000US01005 Barbour  Alabama              25782 01005
    ##  4 0500000US01007 Bibb     Alabama              22527 01007
    ##  5 0500000US01009 Blount   Alabama              57645 01009
    ##  6 0500000US01011 Bullock  Alabama              10352 01011
    ##  7 0500000US01013 Butler   Alabama              20025 01013
    ##  8 0500000US01015 Calhoun  Alabama             115098 01015
    ##  9 0500000US01017 Chambers Alabama              33826 01017
    ## 10 0500000US01019 Cherokee Alabama              25853 01019
    ## # ... with 3,211 more rows
…
    ## [1] TRUE

``` r
print("Very good!")
```

    ## [1] "Very good!"

``` r
df_q3
```

    ## # A tibble: 3,221 x 5
    ##    id             county   state   EstimatePopulation fips 
    ##    <chr>          <chr>    <chr>                <dbl> <chr>
    ##  1 0500000US01001 Autauga  Alabama              55200 01001
    ##  2 0500000US01003 Baldwin  Alabama             208107 01003
    ##  3 0500000US01005 Barbour  Alabama              25782 01005
    ##  4 0500000US01007 Bibb     Alabama              22527 01007
    ##  5 0500000US01009 Blount   Alabama              57645 01009
    ##  6 0500000US01011 Bullock  Alabama              10352 01011
    ##  7 0500000US01013 Butler   Alabama              20025 01013
    ##  8 0500000US01015 Calhoun  Alabama             115098 01015
    ##  9 0500000US01017 Chambers Alabama              33826 01017
    ## 10 0500000US01019 Cherokee Alabama              25853 01019
    ## # ... with 3,211 more rows
…
``` r
max_cases %>% 
  arrange(desc(nursing_perk))
```

    ## # A tibble: 2,436 x 9
    ##    county state max_cases_perk max_deaths_perk population total institutionaliz~
    ##    <chr>  <chr>          <dbl>           <dbl>      <dbl> <dbl>            <dbl>
    ##  1 Cook   Illi~          2076.            94.0    5223719 90282          0.00876
    ##  2 Cuyah~ Ohio           1038.            38.8    1253783 29251          0.0123 
    ##  3 Middl~ Mass~          1637.           125.     1595192 55412          0.00863
    ##  4 Maric~ Ariz~          2893.            51.8    4253913 53177          0.00668
    ##  5 Harris Texas          1758.            30.6    4602523 44524          0.00531
    ##  6 Alleg~ Penn~           695.            20.2    1225561 35054          0.0108 
    ##  7 Phila~ Penn~          1960.           108.     1575522 57383          0.0123 
    ##  8 Hartf~ Conn~          1423.           158.      894730 28227          0.0172 
    ##  9 Wayne  Mich~          1573.           160.     1761382 23849          0.00694
    ## 10 Pinel~ Flor~          1796.            48.8     957875 19678          0.0121 
    ## # ... with 2,426 more rows, and 2 more variables: totalI_perk <dbl>,
    ## #   nursing_perk <dbl>
…
Which are the counties with high institutionalized populations? Is there
anything unusual about the one that has no outbreak?

``` r
max_cases %>% 
  arrange(desc(institutionalized_perk))
```

    ## # A tibble: 2,436 x 9
    ##    county state max_cases_perk max_deaths_perk population total institutionaliz~
    ##    <chr>  <chr>          <dbl>           <dbl>      <dbl> <dbl>            <dbl>
    ##  1 Crowl~ Colo~          1297.            17.8       5630  2682            0.476
    ##  2 Concho Texas           614.            23.6       4233  1588            0.375
    ##  3 Bent   Colo~           138.             0         5809  2208            0.370
    ##  4 Forest Penn~           122.             0         7351  2500            0.340
    ##  5 Garza  Texas          1574.            31.8       6288  2109            0.333
    ##  6 Lake   Tenn~         11095.             0         7526  2506            0.333
    ##  7 Brown  Illi~           195.             0         6675  2110            0.316
    ##  8 Union  Flor~          1700.            26.2      15239  4778            0.314
    ##  9 Lassen Cali~          2027.             0        31185  9779            0.308
    ## 10 Green~ Virg~          3757.            85.8      11659  3527            0.303
    ## # ... with 2,426 more rows, and 2 more variables: totalI_perk <dbl>,
    ## #   nursing_perk <dbl>
…
